{
    "items": [
        {
            "external_urls": {
                "spotify": "https://open.spotify.com/artist/6bPjJVb3mKaiW1qIT0b7ZF"
            },
            "followers": {
                "href": null,
                "total": 37437
            },
            "genres": [
                "emo rap"
            ],
            "href": "https://api.spotify.com/v1/artists/6bPjJVb3mKaiW1qIT0b7ZF",
            "id": "6bPjJVb3mKaiW1qIT0b7ZF",
            "images": [
                {
                    "height": 640,
                    "url": "https://i.scdn.co/image/ab6761610000e5eb6f1ee2b96760f3c0242213bd",
                    "width": 640
                },
                {
                    "height": 320,
                    "url": "https://i.scdn.co/image/ab676161000051746f1ee2b96760f3c0242213bd",
                    "width": 320
                },
                {
                    "height": 160,
                    "url": "https://i.scdn.co/image/ab6761610000f1786f1ee2b96760f3c0242213bd",
                    "width": 160
                }
            ],
            "name": "Sewerperson",
            "popularity": 46,
            "type": "artist",
            "uri": "spotify:artist:6bPjJVb3mKaiW1qIT0b7ZF"
        },
        {
            "external_urls": {
                "spotify": "https://open.spotify.com/artist/6KPdmtIl0LA5mRFSqseWhI"
            },
            "followers": {
                "href": null,
                "total": 108892
            },
            "genres": [
                "alternative emo",
                "anthem emo",
                "aussie emo",
                "pop punk"
            ],
            "href": "https://api.spotify.com/v1/artists/6KPdmtIl0LA5mRFSqseWhI",
            "id": "6KPdmtIl0LA5mRFSqseWhI",
            "images": [
                {
                    "height": 640,
                    "url": "https://i.scdn.co/image/ab6761610000e5eb0eff7610b1dc5b08fa8738c4",
                    "width": 640
                },
                {
                    "height": 320,
                    "url": "https://i.scdn.co/image/ab676161000051740eff7610b1dc5b08fa8738c4",
                    "width": 320
                },
                {
                    "height": 160,
                    "url": "https://i.scdn.co/image/ab6761610000f1780eff7610b1dc5b08fa8738c4",
                    "width": 160
                }
            ],
            "name": "Trophy Eyes",
            "popularity": 46,
            "type": "artist",
            "uri": "spotify:artist:6KPdmtIl0LA5mRFSqseWhI"
        },
        {
            "external_urls": {
                "spotify": "https://open.spotify.com/artist/1bAftSH8umNcGZ0uyV7LMg"
            },
            "followers": {
                "href": null,
                "total": 10413613
            },
            "genres": [
                "argentine hip hop",
                "trap argentino",
                "trap latino",
                "trap triste",
                "urbano latino"
            ],
            "href": "https://api.spotify.com/v1/artists/1bAftSH8umNcGZ0uyV7LMg",
            "id": "1bAftSH8umNcGZ0uyV7LMg",
            "images": [
                {
                    "height": 640,
                    "url": "https://i.scdn.co/image/ab6761610000e5ebb970a6d0f33428393c578f1a",
                    "width": 640
                },
                {
                    "height": 320,
                    "url": "https://i.scdn.co/image/ab67616100005174b970a6d0f33428393c578f1a",
                    "width": 320
                },
                {
                    "height": 160,
                    "url": "https://i.scdn.co/image/ab6761610000f178b970a6d0f33428393c578f1a",
                    "width": 160
                }
            ],
            "name": "Duki",
            "popularity": 79,
            "type": "artist",
            "uri": "spotify:artist:1bAftSH8umNcGZ0uyV7LMg"
        },
        {
            "external_urls": {
                "spotify": "https://open.spotify.com/artist/1kkyfIopIiVvaPHHlbsfac"
            },
            "followers": {
                "href": null,
                "total": 261592
            },
            "genres": [
                "alternative emo",
                "dreamo",
                "emo",
                "midwest emo",
                "pop punk",
                "socal pop punk"
            ],
            "href": "https://api.spotify.com/v1/artists/1kkyfIopIiVvaPHHlbsfac",
            "id": "1kkyfIopIiVvaPHHlbsfac",
            "images": [
                {
                    "height": 640,
                    "url": "https://i.scdn.co/image/ab6761610000e5ebf058d559944039a667adc794",
                    "width": 640
                },
                {
                    "height": 320,
                    "url": "https://i.scdn.co/image/ab67616100005174f058d559944039a667adc794",
                    "width": 320
                },
                {
                    "height": 160,
                    "url": "https://i.scdn.co/image/ab6761610000f178f058d559944039a667adc794",
                    "width": 160
                }
            ],
            "name": "Movements",
            "popularity": 54,
            "type": "artist",
            "uri": "spotify:artist:1kkyfIopIiVvaPHHlbsfac"
        },
        {
            "external_urls": {
                "spotify": "https://open.spotify.com/artist/5CI6pBIR5RCmvIAUEFi1CN"
            },
            "followers": {
                "href": null,
                "total": 12331
            },
            "genres": [],
            "href": "https://api.spotify.com/v1/artists/5CI6pBIR5RCmvIAUEFi1CN",
            "id": "5CI6pBIR5RCmvIAUEFi1CN",
            "images": [
                {
                    "height": 640,
                    "url": "https://i.scdn.co/image/ab6761610000e5ebf0798fa8ccf497afd171bca2",
                    "width": 640
                },
                {
                    "height": 320,
                    "url": "https://i.scdn.co/image/ab67616100005174f0798fa8ccf497afd171bca2",
                    "width": 320
                },
                {
                    "height": 160,
                    "url": "https://i.scdn.co/image/ab6761610000f178f0798fa8ccf497afd171bca2",
                    "width": 160
                }
            ],
            "name": "At 1980",
            "popularity": 33,
            "type": "artist",
            "uri": "spotify:artist:5CI6pBIR5RCmvIAUEFi1CN"
        },
        {
            "external_urls": {
                "spotify": "https://open.spotify.com/artist/0jeYkqwckGJoHQhhXwgzk3"
            },
            "followers": {
                "href": null,
                "total": 356966
            },
            "genres": [
                "rap canario",
                "urbano espanol"
            ],
            "href": "https://api.spotify.com/v1/artists/0jeYkqwckGJoHQhhXwgzk3",
            "id": "0jeYkqwckGJoHQhhXwgzk3",
            "images": [
                {
                    "height": 640,
                    "url": "https://i.scdn.co/image/ab6761610000e5eb9f52199eefb0ccb6f69afe2c",
                    "width": 640
                },
                {
                    "height": 320,
                    "url": "https://i.scdn.co/image/ab676161000051749f52199eefb0ccb6f69afe2c",
                    "width": 320
                },
                {
                    "height": 160,
                    "url": "https://i.scdn.co/image/ab6761610000f1789f52199eefb0ccb6f69afe2c",
                    "width": 160
                }
            ],
            "name": "Cruz Cafun\u00e9",
            "popularity": 65,
            "type": "artist",
            "uri": "spotify:artist:0jeYkqwckGJoHQhhXwgzk3"
        },
        {
            "external_urls": {
                "spotify": "https://open.spotify.com/artist/6bmlMHgSheBauioMgKv2tn"
            },
            "followers": {
                "href": null,
                "total": 1287213
            },
            "genres": [
                "sad lo-fi",
                "sad rap"
            ],
            "href": "https://api.spotify.com/v1/artists/6bmlMHgSheBauioMgKv2tn",
            "id": "6bmlMHgSheBauioMgKv2tn",
            "images": [
                {
                    "height": 640,
                    "url": "https://i.scdn.co/image/ab6761610000e5eb9c58bc0900410699cdfe2489",
                    "width": 640
                },
                {
                    "height": 320,
                    "url": "https://i.scdn.co/image/ab676161000051749c58bc0900410699cdfe2489",
                    "width": 320
                },
                {
                    "height": 160,
                    "url": "https://i.scdn.co/image/ab6761610000f1789c58bc0900410699cdfe2489",
                    "width": 160
                }
            ],
            "name": "Powfu",
            "popularity": 65,
            "type": "artist",
            "uri": "spotify:artist:6bmlMHgSheBauioMgKv2tn"
        },
        {
            "external_urls": {
                "spotify": "https://open.spotify.com/artist/2TM0qnbJH4QPhGMCdPt7fH"
            },
            "followers": {
                "href": null,
                "total": 1510200
            },
            "genres": [
                "pop punk",
                "uk pop punk"
            ],
            "href": "https://api.spotify.com/v1/artists/2TM0qnbJH4QPhGMCdPt7fH",
            "id": "2TM0qnbJH4QPhGMCdPt7fH",
            "images": [
                {
                    "height": 640,
                    "url": "https://i.scdn.co/image/ab6761610000e5eb38597d1ca49138767b0746d1",
                    "width": 640
                },
                {
                    "height": 320,
                    "url": "https://i.scdn.co/image/ab6761610000517438597d1ca49138767b0746d1",
                    "width": 320
                },
                {
                    "height": 160,
                    "url": "https://i.scdn.co/image/ab6761610000f17838597d1ca49138767b0746d1",
                    "width": 160
                }
            ],
            "name": "Neck Deep",
            "popularity": 61,
            "type": "artist",
            "uri": "spotify:artist:2TM0qnbJH4QPhGMCdPt7fH"
        },
        {
            "external_urls": {
                "spotify": "https://open.spotify.com/artist/4kcQWQDK0u9AftVSpdrAgk"
            },
            "followers": {
                "href": null,
                "total": 1139245
            },
            "genres": [
                "trap argentino",
                "trap triste"
            ],
            "href": "https://api.spotify.com/v1/artists/4kcQWQDK0u9AftVSpdrAgk",
            "id": "4kcQWQDK0u9AftVSpdrAgk",
            "images": [
                {
                    "height": 640,
                    "url": "https://i.scdn.co/image/ab6761610000e5ebb96d176a32b688569ea20884",
                    "width": 640
                },
                {
                    "height": 320,
                    "url": "https://i.scdn.co/image/ab67616100005174b96d176a32b688569ea20884",
                    "width": 320
                },
                {
                    "height": 160,
                    "url": "https://i.scdn.co/image/ab6761610000f178b96d176a32b688569ea20884",
                    "width": 160
                }
            ],
            "name": "Luck Ra",
            "popularity": 71,
            "type": "artist",
            "uri": "spotify:artist:4kcQWQDK0u9AftVSpdrAgk"
        },
        {
            "external_urls": {
                "spotify": "https://open.spotify.com/artist/4LLpKhyESsyAXpc4laK94U"
            },
            "followers": {
                "href": null,
                "total": 10330871
            },
            "genres": [
                "hip hop",
                "pittsburgh rap",
                "rap"
            ],
            "href": "https://api.spotify.com/v1/artists/4LLpKhyESsyAXpc4laK94U",
            "id": "4LLpKhyESsyAXpc4laK94U",
            "images": [
                {
                    "height": 640,
                    "url": "https://i.scdn.co/image/ab6761610000e5ebed3b89aa602145fde71a163a",
                    "width": 640
                },
                {
                    "height": 320,
                    "url": "https://i.scdn.co/image/ab67616100005174ed3b89aa602145fde71a163a",
                    "width": 320
                },
                {
                    "height": 160,
                    "url": "https://i.scdn.co/image/ab6761610000f178ed3b89aa602145fde71a163a",
                    "width": 160
                }
            ],
            "name": "Mac Miller",
            "popularity": 79,
            "type": "artist",
            "uri": "spotify:artist:4LLpKhyESsyAXpc4laK94U"
        },
        {
            "external_urls": {
                "spotify": "https://open.spotify.com/artist/2qWK8K2Jfh67UqtwY8tCW6"
            },
            "followers": {
                "href": null,
                "total": 2792570
            },
            "genres": [
                "argentine hip hop",
                "trap argentino"
            ],
            "href": "https://api.spotify.com/v1/artists/2qWK8K2Jfh67UqtwY8tCW6",
            "id": "2qWK8K2Jfh67UqtwY8tCW6",
            "images": [
                {
                    "height": 640,
                    "url": "https://i.scdn.co/image/ab6761610000e5eb21f57a04042738d9fa0f76d1",
                    "width": 640
                },
                {
                    "height": 320,
                    "url": "https://i.scdn.co/image/ab6761610000517421f57a04042738d9fa0f76d1",
                    "width": 320
                },
                {
                    "height": 160,
                    "url": "https://i.scdn.co/image/ab6761610000f17821f57a04042738d9fa0f76d1",
                    "width": 160
                }
            ],
            "name": "YSY A",
            "popularity": 72,
            "type": "artist",
            "uri": "spotify:artist:2qWK8K2Jfh67UqtwY8tCW6"
        },
        {
            "external_urls": {
                "spotify": "https://open.spotify.com/artist/4m6ubhNsdwF4psNf3R8kwR"
            },
            "followers": {
                "href": null,
                "total": 5431492
            },
            "genres": [
                "argentine hip hop",
                "trap argentino",
                "trap latino",
                "trap triste",
                "urbano latino"
            ],
            "href": "https://api.spotify.com/v1/artists/4m6ubhNsdwF4psNf3R8kwR",
            "id": "4m6ubhNsdwF4psNf3R8kwR",
            "images": [
                {
                    "height": 640,
                    "url": "https://i.scdn.co/image/ab6761610000e5ebdf440f19484adb0a0903704f",
                    "width": 640
                },
                {
                    "height": 320,
                    "url": "https://i.scdn.co/image/ab67616100005174df440f19484adb0a0903704f",
                    "width": 320
                },
                {
                    "height": 160,
                    "url": "https://i.scdn.co/image/ab6761610000f178df440f19484adb0a0903704f",
                    "width": 160
                }
            ],
            "name": "KHEA",
            "popularity": 75,
            "type": "artist",
            "uri": "spotify:artist:4m6ubhNsdwF4psNf3R8kwR"
        },
        {
            "external_urls": {
                "spotify": "https://open.spotify.com/artist/1lKZzN2d4IqiEYxyECIEHI"
            },
            "followers": {
                "href": null,
                "total": 219869
            },
            "genres": [
                "alternative emo",
                "emo",
                "pop punk"
            ],
            "href": "https://api.spotify.com/v1/artists/1lKZzN2d4IqiEYxyECIEHI",
            "id": "1lKZzN2d4IqiEYxyECIEHI",
            "images": [
                {
                    "height": 640,
                    "url": "https://i.scdn.co/image/ab6761610000e5eb5a4a917aa6ef0a9f6625e56a",
                    "width": 640
                },
                {
                    "height": 320,
                    "url": "https://i.scdn.co/image/ab676161000051745a4a917aa6ef0a9f6625e56a",
                    "width": 320
                },
                {
                    "height": 160,
                    "url": "https://i.scdn.co/image/ab6761610000f1785a4a917aa6ef0a9f6625e56a",
                    "width": 160
                }
            ],
            "name": "Hot Mulligan",
            "popularity": 58,
            "type": "artist",
            "uri": "spotify:artist:1lKZzN2d4IqiEYxyECIEHI"
        },
        {
            "external_urls": {
                "spotify": "https://open.spotify.com/artist/2RQXRUsr4IW1f3mKyKsy4B"
            },
            "followers": {
                "href": null,
                "total": 2725046
            },
            "genres": [
                "pov: indie"
            ],
            "href": "https://api.spotify.com/v1/artists/2RQXRUsr4IW1f3mKyKsy4B",
            "id": "2RQXRUsr4IW1f3mKyKsy4B",
            "images": [
                {
                    "height": 640,
                    "url": "https://i.scdn.co/image/ab6761610000e5eb336ec53126239813d38ff588",
                    "width": 640
                },
                {
                    "height": 320,
                    "url": "https://i.scdn.co/image/ab67616100005174336ec53126239813d38ff588",
                    "width": 320
                },
                {
                    "height": 160,
                    "url": "https://i.scdn.co/image/ab6761610000f178336ec53126239813d38ff588",
                    "width": 160
                }
            ],
            "name": "Noah Kahan",
            "popularity": 83,
            "type": "artist",
            "uri": "spotify:artist:2RQXRUsr4IW1f3mKyKsy4B"
        },
        {
            "external_urls": {
                "spotify": "https://open.spotify.com/artist/2LRoIwlKmHjgvigdNGBHNo"
            },
            "followers": {
                "href": null,
                "total": 11007445
            },
            "genres": [
                "colombian pop",
                "pop reggaeton",
                "reggaeton",
                "reggaeton colombiano",
                "trap latino",
                "urbano latino"
            ],
            "href": "https://api.spotify.com/v1/artists/2LRoIwlKmHjgvigdNGBHNo",
            "id": "2LRoIwlKmHjgvigdNGBHNo",
            "images": [
                {
                    "height": 640,
                    "url": "https://i.scdn.co/image/ab6761610000e5ebe82c62cc8cf019aecfd71ee8",
                    "width": 640
                },
                {
                    "height": 320,
                    "url": "https://i.scdn.co/image/ab67616100005174e82c62cc8cf019aecfd71ee8",
                    "width": 320
                },
                {
                    "height": 160,
                    "url": "https://i.scdn.co/image/ab6761610000f178e82c62cc8cf019aecfd71ee8",
                    "width": 160
                }
            ],
            "name": "Feid",
            "popularity": 88,
            "type": "artist",
            "uri": "spotify:artist:2LRoIwlKmHjgvigdNGBHNo"
        },
        {
            "external_urls": {
                "spotify": "https://open.spotify.com/artist/2IMZYfNi21MGqxopj9fWx8"
            },
            "followers": {
                "href": null,
                "total": 6891856
            },
            "genres": [
                "r&b en espanol",
                "spanish hip hop",
                "trap latino",
                "urbano espanol",
                "urbano latino"
            ],
            "href": "https://api.spotify.com/v1/artists/2IMZYfNi21MGqxopj9fWx8",
            "id": "2IMZYfNi21MGqxopj9fWx8",
            "images": [
                {
                    "height": 640,
                    "url": "https://i.scdn.co/image/ab6761610000e5ebd1e399fd6729a5751e1f4331",
                    "width": 640
                },
                {
                    "height": 320,
                    "url": "https://i.scdn.co/image/ab67616100005174d1e399fd6729a5751e1f4331",
                    "width": 320
                },
                {
                    "height": 160,
                    "url": "https://i.scdn.co/image/ab6761610000f178d1e399fd6729a5751e1f4331",
                    "width": 160
                }
            ],
            "name": "Rels B",
            "popularity": 81,
            "type": "artist",
            "uri": "spotify:artist:2IMZYfNi21MGqxopj9fWx8"
        },
        {
            "external_urls": {
                "spotify": "https://open.spotify.com/artist/246dkjvS1zLTtiykXe5h60"
            },
            "followers": {
                "href": null,
                "total": 43729075
            },
            "genres": [
                "dfw rap",
                "melodic rap",
                "pop",
                "rap"
            ],
            "href": "https://api.spotify.com/v1/artists/246dkjvS1zLTtiykXe5h60",
            "id": "246dkjvS1zLTtiykXe5h60",
            "images": [
                {
                    "height": 640,
                    "url": "https://i.scdn.co/image/ab6761610000e5eb6be070445b03e0b63147c2c1",
                    "width": 640
                },
                {
                    "height": 320,
                    "url": "https://i.scdn.co/image/ab676161000051746be070445b03e0b63147c2c1",
                    "width": 320
                },
                {
                    "height": 160,
                    "url": "https://i.scdn.co/image/ab6761610000f1786be070445b03e0b63147c2c1",
                    "width": 160
                }
            ],
            "name": "Post Malone",
            "popularity": 87,
            "type": "artist",
            "uri": "spotify:artist:246dkjvS1zLTtiykXe5h60"
        },
        {
            "external_urls": {
                "spotify": "https://open.spotify.com/artist/0qpDBxRgLp6g0k2esJlUDn"
            },
            "followers": {
                "href": null,
                "total": 33632
            },
            "genres": [
                "anthem emo",
                "canadian indie",
                "canadian pop punk",
                "easycore",
                "ottawa indie",
                "pop punk"
            ],
            "href": "https://api.spotify.com/v1/artists/0qpDBxRgLp6g0k2esJlUDn",
            "id": "0qpDBxRgLp6g0k2esJlUDn",
            "images": [
                {
                    "height": 640,
                    "url": "https://i.scdn.co/image/ab6761610000e5ebbbc4e079901123f4a4a172c3",
                    "width": 640
                },
                {
                    "height": 320,
                    "url": "https://i.scdn.co/image/ab67616100005174bbc4e079901123f4a4a172c3",
                    "width": 320
                },
                {
                    "height": 160,
                    "url": "https://i.scdn.co/image/ab6761610000f178bbc4e079901123f4a4a172c3",
                    "width": 160
                }
            ],
            "name": "Bearings",
            "popularity": 33,
            "type": "artist",
            "uri": "spotify:artist:0qpDBxRgLp6g0k2esJlUDn"
        },
        {
            "external_urls": {
                "spotify": "https://open.spotify.com/artist/4bWHA8fMNjzfGPQqnh5D6y"
            },
            "followers": {
                "href": null,
                "total": 228165
            },
            "genres": [
                "spanish hip hop",
                "urbano espanol"
            ],
            "href": "https://api.spotify.com/v1/artists/4bWHA8fMNjzfGPQqnh5D6y",
            "id": "4bWHA8fMNjzfGPQqnh5D6y",
            "images": [
                {
                    "height": 640,
                    "url": "https://i.scdn.co/image/ab6761610000e5ebdd50eab0240a05ce7ed03736",
                    "width": 640
                },
                {
                    "height": 320,
                    "url": "https://i.scdn.co/image/ab67616100005174dd50eab0240a05ce7ed03736",
                    "width": 320
                },
                {
                    "height": 160,
                    "url": "https://i.scdn.co/image/ab6761610000f178dd50eab0240a05ce7ed03736",
                    "width": 160
                }
            ],
            "name": "Recycled J",
            "popularity": 58,
            "type": "artist",
            "uri": "spotify:artist:4bWHA8fMNjzfGPQqnh5D6y"
        },
        {
            "external_urls": {
                "spotify": "https://open.spotify.com/artist/6meTcQ79DrfkIuSLPZkpBg"
            },
            "followers": {
                "href": null,
                "total": 453070
            },
            "genres": [
                "alternative emo",
                "emo",
                "pop punk"
            ],
            "href": "https://api.spotify.com/v1/artists/6meTcQ79DrfkIuSLPZkpBg",
            "id": "6meTcQ79DrfkIuSLPZkpBg",
            "images": [
                {
                    "height": 640,
                    "url": "https://i.scdn.co/image/ab6761610000e5eb4d8d055d82fc1e5b1c5ecb1d",
                    "width": 640
                },
                {
                    "height": 320,
                    "url": "https://i.scdn.co/image/ab676161000051744d8d055d82fc1e5b1c5ecb1d",
                    "width": 320
                },
                {
                    "height": 160,
                    "url": "https://i.scdn.co/image/ab6761610000f1784d8d055d82fc1e5b1c5ecb1d",
                    "width": 160
                }
            ],
            "name": "The Story So Far",
            "popularity": 56,
            "type": "artist",
            "uri": "spotify:artist:6meTcQ79DrfkIuSLPZkpBg"
        }
    ],
    "total": 354,
    "limit": 20,
    "offset": 0,
    "href": "https://api.spotify.com/v1/me/top/artists?offset=0&limit=20&time_range=medium_term",
    "next": "https://api.spotify.com/v1/me/top/artists?offset=20&limit=20&time_range=medium_term",
    "previous": null
}